%YAML 1.1
%TAG !u! tag:unity3d.com,2011:
--- !u!114 &11400000
MonoBehaviour:
  m_ObjectHideFlags: 0
  m_CorrespondingSourceObject: {fileID: 0}
  m_PrefabInstance: {fileID: 0}
  m_PrefabAsset: {fileID: 0}
  m_GameObject: {fileID: 0}
  m_Enabled: 1
  m_EditorHideFlags: 0
  m_Script: {fileID: 11500000, guid: 0b299db4b174b054b8717277318d6a08, type: 3}
  m_Name: Farloppio
  m_EditorClassIdentifier: 
  Sprite: {fileID: 0}
  Name: Farloppio, the Great One.
  Description: 
  Health: 20
  Speed: 5
  AttackSpeed: 1
  Defense: 0
  FlatDamage: 0
  LuckMultiplier: 1
  CurseMultiplier: 5
  HealthRegen: 0.1
  StartingActiveItems:
  - {fileID: 11400000, guid: 0bb1e0610a433a142a070a937542b86a, type: 2}
  StartingPassiveItems:
  - {fileID: 11400000, guid: f88f2fb3a8412a14ba262d558417ffd3, type: 2}
